%YAML 1.1
%TAG !u! tag:unity3d.com,2011:
--- !u!1045 &1
EditorBuildSettings:
  m_ObjectHideFlags: 0
  serializedVersion: 2
  m_Scenes:
  - enabled: 1
    path: Assets/Scenes/UIScene.unity
    guid: 5dc677e7ceae94c458155a494e4450a8
  - enabled: 1
    path: Assets/Scenes/PlayScene.unity
    guid: 716091d889196a7408de7fc9bc0e30bf
