%YAML 1.1
%TAG !u! tag:unity3d.com,2011:
--- !u!1001 &100100000
Prefab:
  m_ObjectHideFlags: 1
  serializedVersion: 2
  m_Modification:
    m_TransformParent: {fileID: 0}
    m_Modifications: []
    m_RemovedComponents: []
  m_ParentPrefab: {fileID: 0}
  m_RootGameObject: {fileID: 1418617303827796}
  m_IsPrefabParent: 1
--- !u!1 &1418617303827796
GameObject:
  m_ObjectHideFlags: 0
  m_PrefabParentObject: {fileID: 0}
  m_PrefabInternal: {fileID: 100100000}
  serializedVersion: 5
  m_Component:
  - component: {fileID: 4636653299192124}
  - component: {fileID: 114879221390047814}
  m_Layer: 10
  m_Name: LevelSet1
  m_TagString: Food
  m_Icon: {fileID: 0}
  m_NavMeshLayer: 0
  m_StaticEditorFlags: 0
  m_IsActive: 1
--- !u!4 &4636653299192124
Transform:
  m_ObjectHideFlags: 1
  m_PrefabParentObject: {fileID: 0}
  m_PrefabInternal: {fileID: 100100000}
  m_GameObject: {fileID: 1418617303827796}
  m_LocalRotation: {x: 0, y: 0, z: 0, w: 1}
  m_LocalPosition: {x: 4.2172866, y: -5.317333, z: 0.25494552}
  m_LocalScale: {x: 1, y: 1, z: 1}
  m_Children: []
  m_Father: {fileID: 0}
  m_RootOrder: 0
  m_LocalEulerAnglesHint: {x: 0, y: 0, z: 0}
--- !u!114 &114879221390047814
MonoBehaviour:
  m_ObjectHideFlags: 1
  m_PrefabParentObject: {fileID: 0}
  m_PrefabInternal: {fileID: 100100000}
  m_GameObject: {fileID: 1418617303827796}
  m_Enabled: 1
  m_EditorHideFlags: 0
  m_Script: {fileID: 11500000, guid: 4900b3964d45e85499dfb1ad1f169490, type: 3}
  m_Name: 
  m_EditorClassIdentifier: 
  floorTiles:
  - {fileID: 1930335019799410, guid: 6fbc34dfc335a3648a57c8b1dbd3f1b4, type: 2}
  wallTiles:
  - {fileID: 1510660822556100, guid: 37c467698a019aa41a2bea36f46f8db2, type: 2}
  outerWallTiles:
  - {fileID: 1401481070036314, guid: 8125e42d535286a488ed5ea6843bbfa9, type: 2}
  skyTiles:
  - {fileID: 1665741148752776, guid: 7a218e5f8fb38fa448613a7e9d7329c5, type: 2}
  grassTiles:
  - {fileID: 1935716925094948, guid: b69626ab0b20d46438b7b8fdbc857682, type: 2}
  exitTiles:
  - {fileID: 1344280510134788, guid: 302128574a01f0a4cb153e45231cf044, type: 2}
  eggTiles:
  - {fileID: 1760578013624628, guid: e17928db42d4860489f65515e92f25b2, type: 2}
